system[0][0] = (120*c0 - 120*c1 + 60*dt0*c2 + 60*dt0*c3 + 12*c4*dt0_2 - 12*c5*dt0_2 + dt0_3*c6 + dt0_3*c7)/(6*dt0_7);
system[0][1] = -(420*c0 - 420*c1 + 216*dt0*c2 + 204*dt0*c3 + 45*c4*dt0_2 - 39*c5*dt0_2 + 4*dt0_3*c6 + 3*dt0_3*c7)/(6*dt0_6);
system[0][2] = (168*c0 - 168*c1 + 90*dt0*c2 + 78*dt0*c3 + 20*c4*dt0_2 - 14*c5*dt0_2 + 2*dt0_3*c6 + dt0_3*c7)/(2*dt0_5);
system[0][3] = -(210*c0 - 210*c1 + 120*dt0*c2 + 90*dt0*c3 + 30*c4*dt0_2 - 15*c5*dt0_2 + 4*dt0_3*c6 + dt0_3*c7)/(6*dt0_4);
system[0][4] = c6/6;
system[0][5] = c4/2;
system[0][6] = c2;
system[0][7] = c0;
